\relax 
\citation{chu2011genomic}
\@writefile{toc}{\contentsline {paragraph}{Abstract}{1}}
\bibstyle{plainnat}
\bibdata{chirpproject}
\bibcite{chu2011genomic}{{1}{2011}{{Chu et~al.}}{{Chu, Qu, Zhong, Artandi, and Chang}}}
