\relax 
\@writefile{toc}{\contentsline {section}{\numberline {1}Trimming}{1}}
\@writefile{lot}{\contentsline {table}{\numberline {1}{\ignorespaces Costomized WGA4 adaptors trimmed in 3' and 5' directiueberarbeitenon.\relax }}{2}}
\providecommand*\caption@xref[2]{\@setref\relax\@undefined{#1}}
\newlabel{tab:trimmedNumber}{{1}{2}}
\newlabel{fig:QCraw}{{1a}{2}}
\newlabel{sub@fig:QCraw}{{a}{2}}
\newlabel{fig:QCTrimmed}{{1b}{2}}
\newlabel{sub@fig:QCTrimmed}{{b}{2}}
\newlabel{fig:QCTrimmed3Prime}{{1c}{2}}
\newlabel{sub@fig:QCTrimmed3Prime}{{c}{2}}
\newlabel{fig:QCTrimmed5Prime}{{1d}{2}}
\newlabel{sub@fig:QCTrimmed5Prime}{{d}{2}}
\@writefile{lof}{\contentsline {figure}{\numberline {1}{\ignorespaces (1a\hbox {}) FastQC Report of the raw data. (1b\hbox {}) FastQC Report of the data after trimming the TrueSeq-Adaptor. (1c\hbox {}): FastQC Report of the data after trimming the TrueSeq-Adaptor and the costomized WGA4-adaptor in 3' direction.(1d\hbox {}): FastQC Report of the data after trimming the TrueSeq-Adaptor and the costomized WGA4-adaptor in 5' direction.\relax }}{2}}
\newlabel{fig:AROutput}{{\caption@xref {fig:AROutput}{ on input line 98}}{3}}
\@writefile{lof}{\contentsline {figure}{\numberline {2}{\ignorespaces Adapters detected by the software AdapterRemoval\relax }}{3}}
\@writefile{lot}{\contentsline {table}{\numberline {2}{\ignorespaces Costomized WGA4 adaptors trimmed in 3' and 5' direction.\relax }}{3}}
\newlabel{tab:defTrimmed2}{{2}{3}}
\@writefile{toc}{\contentsline {paragraph}{Further observations}{3}}
\@writefile{toc}{\contentsline {paragraph}{Open questions}{3}}
